Sri.vcd
$date
	Sun Oct 23 23:30:07 2022
$end
$version
	Icarus Verilog
$end
$timescale
	1s
$end
$scope module testbech_pip $end
$var reg 1 ! clock $end
$var integer 32 " i [31:0] $end
$scope module Ram $end
$var wire 1 # DMMemWrite $end
$var wire 1 $ DMRegWrite $end
$var wire 1 ! clk $end
$scope module EX1 $end
$var wire 1 ! clk $end
$var wire 32 % EXsignEX [31:0] $end
$var wire 32 & EXRead1 [31:0] $end
$var wire 4 ' AluCtrl [3:0] $end
$var reg 32 ( ALUres [31:0] $end
$var reg 1 ) zero $end
$upscope $end
$scope module EXDM1 $end
$var wire 32 * ALUres [31:0] $end
$var wire 1 ! clk $end
$var wire 32 + instructionEX [31:0] $end
$var wire 5 , EXwriteReg [4:0] $end
$var wire 1 - EXRegWrite $end
$var wire 32 . EXRead2 [31:0] $end
$var wire 1 / EXMemWrite $end
$var wire 1 0 EXMemToReg $end
$var wire 1 1 EXMemRead $end
$var reg 32 2 ALUresDM [31:0] $end
$var reg 1 3 DMMemRead $end
$var reg 1 4 DMMemToReg $end
$var reg 1 5 DMMemWrite $end
$var reg 32 6 DMRead2 [31:0] $end
$var reg 1 7 DMRegWrite $end
$var reg 5 8 DMwriteReg [4:0] $end
$var reg 32 9 instructionDM [31:0] $end
$upscope $end
$scope module ID1 $end
$var wire 1 ! clk $end
$var wire 32 : nextPCID [31:0] $end
$var wire 32 ; instructionIDstall [31:0] $end
$var wire 5 < WBwriteReg [4:0] $end
$var wire 32 = WBwriteData [31:0] $end
$var wire 1 > WBRegWrite $end
$var reg 4 ? AluCtrl [3:0] $end
$var reg 1 @ AluSrc $end
$var reg 32 A BranchAddr [31:0] $end
$var reg 32 B IDPC [31:0] $end
$var reg 1 C IDpcSrc $end
$var reg 1 D Jump $end
$var reg 32 E JumpAddr [31:0] $end
$var reg 1 F MemRead $end
$var reg 1 G MemToReg $end
$var reg 1 H MemWrite $end
$var reg 1 I RegDest $end
$var reg 1 J RegWrite $end
$var reg 1 K isBranch $end
$var reg 1 L isbeq $end
$var reg 1 M isbne $end
$var reg 32 N rd1 [31:0] $end
$var reg 32 O rd2 [31:0] $end
$var reg 32 P signEx [31:0] $end
$var reg 32 Q signExt [31:0] $end
$var reg 5 R writeReg [4:0] $end
$var integer 32 S i [31:0] $end
$upscope $end
$scope module IDEX1 $end
$var wire 4 T AluCtrl [3:0] $end
$var wire 1 F MemRead $end
$var wire 1 G MemToReg $end
$var wire 1 H MemWrite $end
$var wire 1 J RegWrite $end
$var wire 1 ! clk $end
$var wire 32 U rd1 [31:0] $end
$var wire 32 V rd2 [31:0] $end
$var wire 32 W signEx [31:0] $end
$var wire 5 X writeReg [4:0] $end
$var wire 32 Y instructionIDstall [31:0] $end
$var reg 4 Z EXAluCtrl [3:0] $end
$var reg 1 1 EXMemRead $end
$var reg 1 0 EXMemToReg $end
$var reg 1 / EXMemWrite $end
$var reg 1 - EXRegWrite $end
$var reg 32 [ EXread1 [31:0] $end
$var reg 32 \ EXread2 [31:0] $end
$var reg 32 ] EXsignEx [31:0] $end
$var reg 5 ^ EXwriteReg [4:0] $end
$var reg 32 _ instructionEX [31:0] $end
$upscope $end
$scope module IF1 $end
$var wire 32 ` IDPC [31:0] $end
$var wire 1 C IDpcSrc $end
$var wire 1 ! clk $end
$var wire 1 a Stall $end
$var reg 32 b PC [31:0] $end
$var reg 32 c instruction [31:0] $end
$var reg 32 d nextPC [31:0] $end
$var integer 32 e i [31:0] $end
$upscope $end
$scope module IFID1 $end
$var wire 1 ! clk $end
$var wire 32 f instructionIF [31:0] $end
$var wire 32 g nextPCIF [31:0] $end
$var wire 1 a Stall $end
$var reg 32 h instructionID [31:0] $end
$var reg 32 i nextPCID [31:0] $end
$upscope $end
$scope module MEM1 $end
$var wire 32 j DMAddress [31:0] $end
$var wire 1 3 DMMemRead $end
$var wire 1 5 DMMemWrite $end
$var wire 32 k DMrd2 [31:0] $end
$var wire 1 ! clk $end
$var reg 32 l DMReadData [31:0] $end
$var integer 32 m i [31:0] $end
$upscope $end
$scope module MEMWB1 $end
$var wire 32 n DMAluRes [31:0] $end
$var wire 1 3 DMMemRead $end
$var wire 1 4 DMMemToReg $end
$var wire 1 # DMMemWrite $end
$var wire 32 o DMReadData [31:0] $end
$var wire 1 $ DMRegWrite $end
$var wire 5 p DMWriteReg [4:0] $end
$var wire 1 ! clk $end
$var wire 32 q instructionDM [31:0] $end
$var reg 32 r WBAluRes [31:0] $end
$var reg 1 s WBMemRead $end
$var reg 1 t WBMemToReg $end
$var reg 1 u WBMemWrite $end
$var reg 32 v WBReadData [31:0] $end
$var reg 1 w WBiRegWrite $end
$var reg 5 x WBiWriteReg [4:0] $end
$var reg 32 y instructionWB [31:0] $end
$upscope $end
$scope module WB1 $end
$var wire 32 z WBAluRes [31:0] $end
$var wire 1 t WBMemToReg $end
$var wire 32 { WBReadData [31:0] $end
$var wire 1 w WBiRegWrite $end
$var wire 5 | WBiWriteReg [4:0] $end
$var wire 1 ! clk $end
$var reg 1 > WBRegWrite $end
$var reg 5 } WBWriteReg [4:0] $end
$var reg 32 ~ WBwriteData [31:0] $end
$upscope $end
$scope module datstall1 $end
$var wire 1 w RegWrite $end
$var wire 1 ! clk $end
$var wire 32 !" instructionEX [31:0] $end
$var wire 32 "" instructionID [31:0] $end
$var wire 32 #" instructionMEM [31:0] $end
$var wire 32 $" instructionWB [31:0] $end
$var wire 5 %" writeReg [4:0] $end
$var wire 6 &" opcode [5:0] $end
$var wire 5 '" RTID [4:0] $end
$var wire 5 (" RSID [4:0] $end
$var reg 32 )" instructionIDstall [31:0] $end
$var reg 1 *" isRsValid $end
$var reg 1 +" isRtValid $end
$var reg 5 ," isSvalid1 [4:0] $end
$var reg 5 -" isSvalid2 [4:0] $end
$var reg 5 ." isSvalid3 [4:0] $end
$var reg 1 /" isWvalid1 $end
$var reg 1 0" isWvalid2 $end
$var reg 1 1" isWvalid3 $end
$var reg 1 a stall $end
$upscope $end
$scope module sd $end
$var wire 32 2" ALUres [31:0] $end
$var wire 32 3" ALUresDM [31:0] $end
$var wire 4 4" AluCtrl [3:0] $end
$var wire 1 3 DMMemRead $end
$var wire 1 4 DMMemToReg $end
$var wire 1 5 DMMemWrite $end
$var wire 32 5" DMRead2 [31:0] $end
$var wire 32 6" DMReadData [31:0] $end
$var wire 1 7 DMRegWrite $end
$var wire 5 7" DMwriteReg [4:0] $end
$var wire 4 8" EXAluCtrl [3:0] $end
$var wire 1 1 EXMemRead $end
$var wire 1 0 EXMemToReg $end
$var wire 1 / EXMemWrite $end
$var wire 32 9" EXRead1 [31:0] $end
$var wire 32 :" EXRead2 [31:0] $end
$var wire 1 - EXRegWrite $end
$var wire 32 ;" EXsignEx [31:0] $end
$var wire 5 <" EXwriteReg [4:0] $end
$var wire 32 =" IDPC [31:0] $end
$var wire 1 C IDpcSrc $end
$var wire 1 F MemRead $end
$var wire 1 G MemToReg $end
$var wire 1 H MemWrite $end
$var wire 1 I RegDest $end
$var wire 1 J RegWrite $end
$var wire 1 a Stall $end
$var wire 32 >" WBAluRes [31:0] $end
$var wire 1 s WBMemRead $end
$var wire 1 t WBMemToReg $end
$var wire 1 u WBMemWrite $end
$var wire 32 ?" WBReadData [31:0] $end
$var wire 1 > WBRegWrite $end
$var wire 5 @" WBWriteReg [4:0] $end
$var wire 1 w WBiRegWrite $end
$var wire 5 A" WBiWriteReg [4:0] $end
$var wire 32 B" WBwriteData [31:0] $end
$var wire 32 C" instructionDM [31:0] $end
$var wire 32 D" instructionEX [31:0] $end
$var wire 32 E" instructionID [31:0] $end
$var wire 32 F" instructionIDstall [31:0] $end
$var wire 32 G" instructionIF [31:0] $end
$var wire 32 H" instructionMEM [31:0] $end
$var wire 32 I" instructionWB [31:0] $end
$var wire 32 J" nextPC [31:0] $end
$var wire 32 K" nextPCID [31:0] $end
$var wire 32 L" nextPCIF [31:0] $end
$var wire 32 M" rd1 [31:0] $end
$var wire 32 N" rd2 [31:0] $end
$var wire 32 O" signEx [31:0] $end
$var wire 5 P" writeReg [4:0] $end
$var wire 1 ) zero $end
$upscope $end
$upscope $end
$upscope $end
$enddefinitions $end
$comment Show the parameter values. $end
$dumpall
$end
#0
$dumpvars
bx P"
bx O"
bx N"
bx M"
bz L"
bx K"
b100 J"
b0 I"
bz H"
bx G"
bx F"
b0 E"
b0 D"
b0 C"
b0 B"
bx A"
b0 @"
bx ?"
bx >"
bx ="
bx <"
bx ;"
bx :"
bx 9"
bx 8"
bx 7"
bx 6"
bx 5"
bx 4"
bx 3"
bx 2"
01"
00"
0/"
bx ."
bx -"
bx ,"
0+"
0*"
bx )"
b0 ("
b0 '"
b0 &"
bx %"
b0 $"
bz #"
b0 ""
b0 !"
b0 ~
b0 }
bx |
bx {
bx z
b0 y
bx x
xw
bx v
xu
xt
xs
bx r
b0 q
bx p
bx o
bx n
b100000000000 m
bx l
bx k
bx j
bx i
b0 h
bz g
bx f
bx e
b100 d
bx c
b0 b
0a
bx `
b0 _
bx ^
bx ]
bx \
bx [
bx Z
bx Y
bx X
bx W
bx V
bx U
bx T
b100000 S
bx R
b0 Q
bx P
bx O
bx N
xM
xL
xK
xJ
xI
xH
xG
xF
b0 E
0D
xC
bx B
b0 A
x@
bx ?
0>
b0 =
b0 <
bx ;
bx :
b0 9
bx 8
x7
bx 6
x5
x4
x3
bx 2
x1
x0
x/
bx .
x-
bx ,
b0 +
bx *
x)
bx (
bx '
bx &
bx %
z$
z#
b0 "
0!
$end
#5
bx +
bx _
bx !"
bx D"
zw
zu
bx =
bx ~
bx B"
x>
bx <
bx }
bx @"
bx ("
bx '"
bx &"
0)
b0 (
b0 *
b0 2"
b100 b
b100 e
b10000110000100000100000 c
b10000110000100000100000 f
b10000110000100000100000 G"
bx h
bx ""
bx E"
bz :
bz i
bz K"
b0 ;
b0 Y
b0 )"
b0 F"
b0xxxxxxxxxxxxxxxxxxxxxxxxxx00 E
bx A
bx Q
xC
xK
b1 "
1!
#10
b10 "
0!
#15
z>
b0 2
b0 j
b0 n
b0 3"
bx 9
bx q
bx C"
b100000000001000000000000001111 +
b100000000001000000000000001111 _
b100000000001000000000000001111 !"
b100000000001000000000000001111 D"
b0x00 ,
b0x00 ^
b0x00 <"
b100 O
b100 V
b100 N"
b0 N
b0 U
b0 M"
0M
0L
0G
0H
0F
1@
1J
0I
b10 ?
b10 T
b10 4"
b0 ("
b100 '"
b1000 &"
b100000000000000111100 E
b1111 Q
b0x00 R
b0x00 X
b0x00 P"
xC
xK
b100000000001000000000000001111 ;
b100000000001000000000000001111 Y
b100000000001000000000000001111 )"
b100000000001000000000000001111 F"
1*"
b100000000001000000000000001111 h
b100000000001000000000000001111 ""
b100000000001000000000000001111 E"
b1000 d
b1000 J"
b1000 b
b1000 e
b100000000001000000000000001111 c
b100000000001000000000000001111 f
b100000000001000000000000001111 G"
b11 "
1!
#20
b100 "
0!
#25
bx (
bx *
bx 2"
b100 .
b100 \
b100 :"
b0 &
b0 [
b0 9"
b10 '
b10 Z
b10 8"
1-
0/
00
01
b0x00 8
b0x00 p
b0x00 7"
b100000000001000000000000001111 9
b100000000001000000000000001111 q
b100000000001000000000000001111 C"
b0 l
b0 o
b0 6"
b0 r
b0 z
b0 >"
bx y
bx $"
bx I"
b0 ;
b0 Y
b0 )"
b0 F"
1a
b100 ,"
1/"
bz B
bz `
bz ="
b1111 P
b1111 W
b1111 O"
b100 R
b100 X
b100 P"
0C
0K
b101 "
1!
#30
b110 "
0!
#35
b0 (
b0 *
b0 2"
b0 v
b0 {
b0 ?"
b100000000001000000000000001111 y
b100000000001000000000000001111 $"
b100000000001000000000000001111 I"
b0x00 x
b0x00 |
b0x00 %"
b0x00 A"
b100 6
b100 k
b100 5"
bx 2
bx j
bx n
bx 3"
17
05
04
03
b0 %
b0 ]
b0 ;"
b0 +
b0 _
b0 !"
b0 D"
b0 ,
b0 ^
b0 <"
b0 O
b0 V
b0 N"
0@
0J
b0 ?
b0 T
b0 4"
b0 E
b0 P
b0 W
b0 O"
b0 Q
b0 R
b0 X
b0 P"
b111 "
1!
#40
b1000 "
0!
#45
b0 .
b0 \
b0 :"
b0 '
b0 Z
b0 8"
0-
b0 8
b0 p
b0 7"
b0 2
b0 j
b0 n
b0 3"
b0 9
b0 q
b0 C"
bx l
bx o
bx 6"
bx r
bx z
bx >"
0t
0s
b0 =
b0 ~
b0 B"
b0x00 <
b0x00 }
b0x00 @"
b1100 d
b1100 J"
b1100 b
b1100 e
b11000100010100000100010 c
b11000100010100000100010 f
b11000100010100000100010 G"
b100000000001000000000000001111 ;
b100000000001000000000000001111 Y
b100000000001000000000000001111 )"
b100000000001000000000000001111 F"
0a
b0x00 ."
z1"
0/"
b1001 "
1!
#50
b1010 "
0!
#55
bx =
bx ~
bx B"
b0 r
b0 z
b0 >"
bx v
bx {
bx ?"
b0 y
b0 $"
b0 I"
b0 x
b0 |
b0 %"
b0 A"
b0 l
b0 o
b0 6"
b0 6
b0 k
b0 5"
07
b11000000001000000100000 +
b11000000001000000100000 _
b11000000001000000100000 !"
b11000000001000000100000 D"
b11 N
b11 U
b11 M"
b10 ?
b10 T
b10 4"
1J
1I
b11 ("
b0 '"
b0 &"
b1100000000100000010000000 E
b1000000100000 Q
b11000000001000000100000 ;
b11000000001000000100000 Y
b11000000001000000100000 )"
b11000000001000000100000 F"
b11000000001000000100000 h
b11000000001000000100000 ""
b11000000001000000100000 E"
b10000 d
b10000 J"
b10000 b
b10000 e
b11000000001000000100000 c
b11000000001000000100000 f
b11000000001000000100000 G"
b1011 "
1!
#60
b1100 "
0!
#65
b11 (
b11 *
b11 2"
b11 &
b11 [
b11 9"
b10 '
b10 Z
b10 8"
1-
b11000000001000000100000 9
b11000000001000000100000 q
b11000000001000000100000 C"
b0 v
b0 {
b0 ?"
b0 =
b0 ~
b0 B"
b0 <
b0 }
b0 @"
b10100 d
b10100 J"
b10100 b
b10100 e
b100000000001110000000000011111 c
b100000000001110000000000011111 f
b100000000001110000000000011111 G"
01"
b10 ,"
1/"
1+"
b10 R
b10 X
b10 P"
b1101 "
1!
#70
b1110 "
0!
#75
b11000000001000000100000 y
b11000000001000000100000 $"
b11000000001000000100000 I"
b11 2
b11 j
b11 n
b11 3"
17
b0 +
b0 _
b0 !"
b0 D"
b0 N
b0 U
b0 M"
0J
0I
b0 ?
b0 T
b0 4"
b0 ("
b0 E
b0 Q
b0 R
b0 X
b0 P"
b0 ;
b0 Y
b0 )"
b0 F"
0+"
0*"
b0 h
b0 ""
b0 E"
b11000 d
b11000 J"
b11000 b
b11000 e
b0 c
b0 f
b0 G"
b1111 "
1!
#80
b10000 "
0!
#85
b0 (
b0 *
b0 2"
b0 &
b0 [
b0 9"
b0 '
b0 Z
b0 8"
0-
b0 9
b0 q
b0 C"
b11 l
b11 o
b11 6"
b11 r
b11 z
b11 >"
b11100 d
b11100 J"
b11100 b
b11100 e
bx c
bx f
bx G"
b0 ."
z1"
0/"
b10001 "
1!
#90
b10010 "
0!
#95
b11 =
b11 ~
b11 B"
b11 v
b11 {
b11 ?"
b0 y
b0 $"
b0 I"
b0 2
b0 j
b0 n
b0 3"
07
bx +
bx _
bx !"
bx D"
bx ,
bx ^
bx <"
bx O
bx V
bx N"
bx N
bx U
bx M"
bx ("
bx '"
bx &"
b0xxxxxxxxxxxxxxxxxxxxxxxxxx00 E
bx Q
bx R
bx X
bx P"
bx ;
bx Y
bx )"
bx F"
bx h
bx ""
bx E"
b100000 d
b100000 J"
b100000 b
b100000 e
bx c
bx f
bx G"
b10011 "
1!
#100
b10100 "
0!
#105
bx .
bx \
bx :"
bx &
bx [
bx 9"
bx 8
bx p
bx 7"
bx 9
bx q
bx C"
b0 l
b0 o
b0 6"
b0 r
b0 z
b0 >"
b100100 d
b100100 J"
b100100 b
b100100 e
bx c
bx f
bx G"
01"
bx P
bx W
bx O"
b10101 "
1!
#110
b10110 "
0!
#115
bx (
bx *
bx 2"
b0 =
b0 ~
b0 B"
b0 v
b0 {
b0 ?"
bx y
bx $"
bx I"
bx x
bx |
bx %"
bx A"
bx 6
bx k
bx 5"
bx %
bx ]
bx ;"
b101000 d
b101000 J"
b101000 b
b101000 e
bx c
bx f
bx G"
b10111 "
1!
#120
b11000 "
0!
#125
bx 2
bx j
bx n
bx 3"
bx <
bx }
bx @"
b101100 d
b101100 J"
b101100 b
b101100 e
bx c
bx f
bx G"
b11001 "
1!
#130
b11010 "
0!
#135
bx r
bx z
bx >"
bx l
bx o
bx 6"
b110000 d
b110000 J"
b110000 b
b110000 e
bx c
bx f
bx G"
b11011 "
1!
#140
b11100 "
0!
#145
bx v
bx {
bx ?"
bx =
bx ~
bx B"
b110100 d
b110100 J"
b110100 b
b110100 e
bx c
bx f
bx G"
b11101 "
1!
#150
b11110 "
0!
#155
b111000 d
b111000 J"
b111000 b
b111000 e
bx c
bx f
bx G"
b11111 "
1!
#160
b100000 "
0!
#165
b111100 d
b111100 J"
b111100 b
b111100 e
bx c
bx f
bx G"
b100001 "
1!
#170
b100010 "
0!
#175
b1000000 d
b1000000 J"
b1000000 b
b1000000 e
bx c
bx f
bx G"
b100011 "
1!
#180
b100100 "
0!
#185
b1000100 d
b1000100 J"
b1000100 b
b1000100 e
bx c
bx f
bx G"
b100101 "
1!
#190
b100110 "
0!
#195
b1001000 d
b1001000 J"
b1001000 b
b1001000 e
bx c
bx f
bx G"
b100111 "
1!
#200
b101000 "
0!
#205
b1001100 d
b1001100 J"
b1001100 b
b1001100 e
bx c
bx f
bx G"
b101001 "
1!
#210
b101010 "
0!
#215
b1010000 d
b1010000 J"
b1010000 b
b1010000 e
bx c
bx f
bx G"
b101011 "
1!
#220
b101100 "
0!
#225
b1010100 d
b1010100 J"
b1010100 b
b1010100 e
bx c
bx f
bx G"
b101101 "
1!
#230
b101110 "
0!
#235
b1011000 d
b1011000 J"
b1011000 b
b1011000 e
bx c
bx f
bx G"
b101111 "
1!
#240
b110000 "
0!
#245
b1011100 d
b1011100 J"
b1011100 b
b1011100 e
bx c
bx f
bx G"
b110001 "
1!
#250
b110010 "
0!
#255
b1100000 d
b1100000 J"
b1100000 b
b1100000 e
bx c
bx f
bx G"
b110011 "
1!
#260
b110100 "
0!
#265
b1100100 d
b1100100 J"
b1100100 b
b1100100 e
bx c
bx f
bx G"
b110101 "
1!
#270
b110110 "
0!
#275
b1101000 d
b1101000 J"
b1101000 b
b1101000 e
bx c
bx f
bx G"
b110111 "
1!
#280
b111000 "
0!
#285
b1101100 d
b1101100 J"
b1101100 b
b1101100 e
bx c
bx f
bx G"
b111001 "
1!
#290
b111010 "
0!
#295
b1110000 d
b1110000 J"
b1110000 b
b1110000 e
bx c
bx f
bx G"
b111011 "
1!
#300
b111100 "
0!
#305
b1110100 d
b1110100 J"
b1110100 b
b1110100 e
bx c
bx f
bx G"
b111101 "
1!
#310
b111110 "
0!
#315
b1111000 d
b1111000 J"
b1111000 b
b1111000 e
bx c
bx f
bx G"
b111111 "
1!
#320
b1000000 "
0!
#325
b1111100 d
b1111100 J"
b1111100 b
b1111100 e
bx c
bx f
bx G"
b1000001 "
1!
#330
b1000010 "
0!
#335
b10000000 d
b10000000 J"
b10000000 b
b10000000 e
bx c
bx f
bx G"
b1000011 "
1!
#340
b1000100 "
0!
#345
b10000100 d
b10000100 J"
b10000100 b
b10000100 e
bx c
bx f
bx G"
b1000101 "
1!
#350
b1000110 "
0!
#355
b10001000 d
b10001000 J"
b10001000 b
b10001000 e
bx c
bx f
bx G"
b1000111 "
1!
#360
b1001000 "
0!
#365
b10001100 d
b10001100 J"
b10001100 b
b10001100 e
bx c
bx f
bx G"
b1001001 "
1!
#370
b1001010 "
0!
#375
b10010000 d
b10010000 J"
b10010000 b
b10010000 e
bx c
bx f
bx G"
b1001011 "
1!
#380
b1001100 "
0!
#385
b10010100 d
b10010100 J"
b10010100 b
b10010100 e
bx c
bx f
bx G"
b1001101 "
1!
#390
b1001110 "
0!
#395
b10011000 d
b10011000 J"
b10011000 b
b10011000 e
bx c
bx f
bx G"
b1001111 "
1!
#400
b1010000 "
0!
#405
b10011100 d
b10011100 J"
b10011100 b
b10011100 e
bx c
bx f
bx G"
b1010001 "
1!
#410
b1010010 "
0!
#415
b10100000 d
b10100000 J"
b10100000 b
b10100000 e
bx c
bx f
bx G"
b1010011 "
1!
#420
b1010100 "
0!
#425
b10100100 d
b10100100 J"
b10100100 b
b10100100 e
bx c
bx f
bx G"
b1010101 "
1!
#430
b1010110 "
0!
#435
b10101000 d
b10101000 J"
b10101000 b
b10101000 e
bx c
bx f
bx G"
b1010111 "
1!
#440
b1011000 "
0!
#445
b10101100 d
b10101100 J"
b10101100 b
b10101100 e
bx c
bx f
bx G"
b1011001 "
1!
#450
b1011010 "
0!
#455
b10110000 d
b10110000 J"
b10110000 b
b10110000 e
bx c
bx f
bx G"
b1011011 "
1!
#460
b1011100 "
0!
#465
b10110100 d
b10110100 J"
b10110100 b
b10110100 e
bx c
bx f
bx G"
b1011101 "
1!
#470
b1011110 "
0!
#475
b10111000 d
b10111000 J"
b10111000 b
b10111000 e
bx c
bx f
bx G"
b1011111 "
1!
#480
b1100000 "
0!
#485
b10111100 d
b10111100 J"
b10111100 b
b10111100 e
bx c
bx f
bx G"
b1100001 "
1!
#490
b1100010 "
0!
#495
b11000000 d
b11000000 J"
b11000000 b
b11000000 e
bx c
bx f
bx G"
b1100011 "
1!
#500
b1100100 "
0!
#505
b11000100 d
b11000100 J"
b11000100 b
b11000100 e
bx c
bx f
bx G"
b1100101 "
1!
#510
b1100110 "
0!
#515
b11001000 d
b11001000 J"
b11001000 b
b11001000 e
bx c
bx f
bx G"
b1100111 "
1!
#520
b1101000 "
0!
#525
b11001100 d
b11001100 J"
b11001100 b
b11001100 e
bx c
bx f
bx G"
b1101001 "
1!
#530
b1101010 "
0!
#535
b11010000 d
b11010000 J"
b11010000 b
b11010000 e
bx c
bx f
bx G"
b1101011 "
1!
#540
b1101100 "
0!
#545
b11010100 d
b11010100 J"
b11010100 b
b11010100 e
bx c
bx f
bx G"
b1101101 "
1!
#550
b1101110 "
0!
#555
b11011000 d
b11011000 J"
b11011000 b
b11011000 e
bx c
bx f
bx G"
b1101111 "
1!
#560
b1110000 "
0!
#565
b11011100 d
b11011100 J"
b11011100 b
b11011100 e
bx c
bx f
bx G"
b1110001 "
1!
#570
b1110010 "
0!
#575
b11100000 d
b11100000 J"
b11100000 b
b11100000 e
bx c
bx f
bx G"
b1110011 "
1!
#580
b1110100 "
0!
#585
b11100100 d
b11100100 J"
b11100100 b
b11100100 e
bx c
bx f
bx G"
b1110101 "
1!
#590
b1110110 "
0!
#595
b11101000 d
b11101000 J"
b11101000 b
b11101000 e
bx c
bx f
bx G"
b1110111 "
1!
#600
b1111000 "
0!
#605
b11101100 d
b11101100 J"
b11101100 b
b11101100 e
bx c
bx f
bx G"
b1111001 "
1!
#610
b1111010 "
0!
#615
b11110000 d
b11110000 J"
b11110000 b
b11110000 e
bx c
bx f
bx G"
b1111011 "
1!
#620
b1111100 "
0!
#625
b11110100 d
b11110100 J"
b11110100 b
b11110100 e
bx c
bx f
bx G"
b1111101 "
1!
#630
b1111110 "
0!
#635
b11111000 d
b11111000 J"
b11111000 b
b11111000 e
bx c
bx f
bx G"
b1111111 "
1!
#640
b10000000 "
0!
#645
b11111100 d
b11111100 J"
b11111100 b
b11111100 e
bx c
bx f
bx G"
b10000001 "
1!
#650
b10000010 "
0!
#655
b100000000 d
b100000000 J"
b100000000 b
b100000000 e
bx c
bx f
bx G"
b10000011 "
1!
#660
b10000100 "
0!
#665
b100000100 d
b100000100 J"
b100000100 b
b100000100 e
bx c
bx f
bx G"
b10000101 "
1!
#670
b10000110 "
0!
#675
b100001000 d
b100001000 J"
b100001000 b
b100001000 e
bx c
bx f
bx G"
b10000111 "
1!
#680
b10001000 "
0!
#685
b100001100 d
b100001100 J"
b100001100 b
b100001100 e
bx c
bx f
bx G"
b10001001 "
1!
#690
b10001010 "
0!
#695
b100010000 d
b100010000 J"
b100010000 b
b100010000 e
bx c
bx f
bx G"
b10001011 "
1!
#700
b10001100 "
0!
#705
b100010100 d
b100010100 J"
b100010100 b
b100010100 e
bx c
bx f
bx G"
b10001101 "
1!
#710
b10001110 "
0!
#715
b100011000 d
b100011000 J"
b100011000 b
b100011000 e
bx c
bx f
bx G"
b10001111 "
1!
#720
b10010000 "
0!
#725
b100011100 d
b100011100 J"
b100011100 b
b100011100 e
bx c
bx f
bx G"
b10010001 "
1!
#730
b10010010 "
0!
#735
b100100000 d
b100100000 J"
b100100000 b
b100100000 e
bx c
bx f
bx G"
b10010011 "
1!
#740
b10010100 "
0!
#745
b100100100 d
b100100100 J"
b100100100 b
b100100100 e
bx c
bx f
bx G"
b10010101 "
1!
#750
b10010110 "
0!
#755
b100101000 d
b100101000 J"
b100101000 b
b100101000 e
bx c
bx f
bx G"
b10010111 "
1!
#760
b10011000 "
0!
#765
b100101100 d
b100101100 J"
b100101100 b
b100101100 e
bx c
bx f
bx G"
b10011001 "
1!
#770
b10011010 "
0!
#775
b100110000 d
b100110000 J"
b100110000 b
b100110000 e
bx c
bx f
bx G"
b10011011 "
1!
#780
b10011100 "
0!
#785
b100110100 d
b100110100 J"
b100110100 b
b100110100 e
bx c
bx f
bx G"
b10011101 "
1!
#790
b10011110 "
0!
#795
b100111000 d
b100111000 J"
b100111000 b
b100111000 e
bx c
bx f
bx G"
b10011111 "
1!
#800
b10100000 "
0!
#805
b100111100 d
b100111100 J"
b100111100 b
b100111100 e
bx c
bx f
bx G"
b10100001 "
1!
#810
b10100010 "
0!
#815
b101000000 d
b101000000 J"
b101000000 b
b101000000 e
bx c
bx f
bx G"
b10100011 "
1!
#820
b10100100 "
0!
#825
b101000100 d
b101000100 J"
b101000100 b
b101000100 e
bx c
bx f
bx G"
b10100101 "
1!
#830
b10100110 "
0!
#835
b101001000 d
b101001000 J"
b101001000 b
b101001000 e
bx c
bx f
bx G"
b10100111 "
1!
#840
b10101000 "
0!
#845
b101001100 d
b101001100 J"
b101001100 b
b101001100 e
bx c
bx f
bx G"
b10101001 "
1!
#850
b10101010 "
0!
#855
b101010000 d
b101010000 J"
b101010000 b
b101010000 e
bx c
bx f
bx G"
b10101011 "
1!
#860
b10101100 "
0!
#865
b101010100 d
b101010100 J"
b101010100 b
b101010100 e
bx c
bx f
bx G"
b10101101 "
1!
#870
b10101110 "
0!
#875
b101011000 d
b101011000 J"
b101011000 b
b101011000 e
bx c
bx f
bx G"
b10101111 "
1!
#880
b10110000 "
0!
#885
b101011100 d
b101011100 J"
b101011100 b
b101011100 e
bx c
bx f
bx G"
b10110001 "
1!
#890
b10110010 "
0!
#895
b101100000 d
b101100000 J"
b101100000 b
b101100000 e
bx c
bx f
bx G"
b10110011 "
1!
#900
b10110100 "
0!
#905
b101100100 d
b101100100 J"
b101100100 b
b101100100 e
bx c
bx f
bx G"
b10110101 "
1!
#910
b10110110 "
0!
#915
b101101000 d
b101101000 J"
b101101000 b
b101101000 e
bx c
bx f
bx G"
b10110111 "
1!
#920
b10111000 "
0!
#925
b101101100 d
b101101100 J"
b101101100 b
b101101100 e
bx c
bx f
bx G"
b10111001 "
1!
#930
b10111010 "
0!
#935
b101110000 d
b101110000 J"
b101110000 b
b101110000 e
bx c
bx f
bx G"
b10111011 "
1!
#940
b10111100 "
0!
#945
b101110100 d
b101110100 J"
b101110100 b
b101110100 e
bx c
bx f
bx G"
b10111101 "
1!
#950
b10111110 "
0!
#955
b101111000 d
b101111000 J"
b101111000 b
b101111000 e
bx c
bx f
bx G"
b10111111 "
1!
#960
b11000000 "
0!
#965
b101111100 d
b101111100 J"
b101111100 b
b101111100 e
bx c
bx f
bx G"
b11000001 "
1!
#970
b11000010 "
0!
#975
b110000000 d
b110000000 J"
b110000000 b
b110000000 e
bx c
bx f
bx G"
b11000011 "
1!
#980
b11000100 "
0!
#985
b110000100 d
b110000100 J"
b110000100 b
b110000100 e
bx c
bx f
bx G"
b11000101 "
1!
#990
b11000110 "
0!
#995
b110001000 d
b110001000 J"
b110001000 b
b110001000 e
bx c
bx f
bx G"
b11000111 "
1!
#1000
b11001000 "
0!
#1005
b110001100 d
b110001100 J"
b110001100 b
b110001100 e
bx c
bx f
bx G"
b11001001 "
1!
#1010
b11001010 "
0!
#1015
b110010000 d
b110010000 J"
b110010000 b
b110010000 e
bx c
bx f
bx G"
b11001011 "
1!
#1020
b11001100 "
0!
#1025
b110010100 d
b110010100 J"
b110010100 b
b110010100 e
bx c
bx f
bx G"
b11001101 "
1!
#1030
b11001110 "
0!
#1035
b110011000 d
b110011000 J"
b110011000 b
b110011000 e
bx c
bx f
bx G"
b11001111 "
1!
#1040
b11010000 "
0!
#1045
b110011100 d
b110011100 J"
b110011100 b
b110011100 e
bx c
bx f
bx G"
b11010001 "
1!
#1050
b11010010 "
0!
#1055
b110100000 d
b110100000 J"
b110100000 b
b110100000 e
bx c
bx f
bx G"
b11010011 "
1!
#1060
b11010100 "
0!
#1065
b110100100 d
b110100100 J"
b110100100 b
b110100100 e
bx c
bx f
bx G"
b11010101 "
1!
#1070
b11010110 "
0!
#1075
b110101000 d
b110101000 J"
b110101000 b
b110101000 e
bx c
bx f
bx G"
b11010111 "
1!
#1080
b11011000 "
0!
#1085
b110101100 d
b110101100 J"
b110101100 b
b110101100 e
bx c
bx f
bx G"
b11011001 "
1!
#1090
b11011010 "
0!
#1095
b110110000 d
b110110000 J"
b110110000 b
b110110000 e
bx c
bx f
bx G"
b11011011 "
1!
#1100
b11011100 "
0!
#1105
b110110100 d
b110110100 J"
b110110100 b
b110110100 e
bx c
bx f
bx G"
b11011101 "
1!
#1110
b11011110 "
0!
